{
  "project_info": {
    "project_number": "541029946084",
    "firebase_url": "https://painter3d-55f11.firebaseio.com",
    "project_id": "painter3d-55f11",
    "storage_bucket": "painter3d-55f11.appspot.com"
  },
  "client": [
    {
      "client_info": {
        "mobilesdk_app_id": "1:541029946084:android:0ef6b73663fca805e352f1",
        "android_client_info": {
          "package_name": "com.amanotes.epicpainter3dand"
        }
      },
      "oauth_client": [
        {
          "client_id": "541029946084-jfcklmeitqtvjrhkuao093vg8rhoerj7.apps.googleusercontent.com",
          "client_type": 3
        }
      ],
      "api_key": [
        {
          "current_key": "AIzaSyDSvdOQOVp9KNFGK_rKNuA878ufC05i0IY"
        }
      ],
      "services": {
        "appinvite_service": {
          "other_platform_oauth_client": [
            {
              "client_id": "541029946084-jfcklmeitqtvjrhkuao093vg8rhoerj7.apps.googleusercontent.com",
              "client_type": 3
            },
            {
              "client_id": "541029946084-rmdfvgcmmrc91ft1f58dg8srsou4rdfs.apps.googleusercontent.com",
              "client_type": 2,
              "ios_info": {
                "bundle_id": "com.amanotes.painter3d"
              }
            }
          ]
        }
      }
    },
    {
      "client_info": {
        "mobilesdk_app_id": "1:541029946084:android:e4c62495de33f51fe352f1",
        "android_client_info": {
          "package_name": "com.amanotes.painter3dand"
        }
      },
      "oauth_client": [
        {
          "client_id": "541029946084-jfcklmeitqtvjrhkuao093vg8rhoerj7.apps.googleusercontent.com",
          "client_type": 3
        }
      ],
      "api_key": [
        {
          "current_key": "AIzaSyDSvdOQOVp9KNFGK_rKNuA878ufC05i0IY"
        }
      ],
      "services": {
        "appinvite_service": {
          "other_platform_oauth_client": [
            {
              "client_id": "541029946084-jfcklmeitqtvjrhkuao093vg8rhoerj7.apps.googleusercontent.com",
              "client_type": 3
            },
            {
              "client_id": "541029946084-rmdfvgcmmrc91ft1f58dg8srsou4rdfs.apps.googleusercontent.com",
              "client_type": 2,
              "ios_info": {
                "bundle_id": "com.amanotes.painter3d"
              }
            }
          ]
        }
      }
    }
  ],
  "configuration_version": "1"
}